{
    "page": 1,
    "total_results": 53,
    "total_pages": 3,
    "results": [
        {
            "popularity": 512.222,
            "vote_count": 3411,
            "video": false,
            "poster_path": "/udDclJoHjfjb8Ekgsd4FDteOkCU.jpg",
            "id": 475557,
            "adult": false,
            "backdrop_path": "/n6bUvigpRFqSwmPp1m2YADdbRBc.jpg",
            "original_language": "en",
            "original_title": "Joker",
            "genre_ids": [
                80,
                18,
                53
            ],
            "title": "Joker",
            "vote_average": 8.6,
            "overview": "During the 1980s, a failed stand-up comedian is driven insane and turns to a life of crime and chaos in Gotham City while becoming an infamous psychopathic crime figure.",
            "release_date": "2019-10-04"
        },
        {
            "popularity": 3.266,
            "id": 129507,
            "video": false,
            "vote_count": 23,
            "vote_average": 3.4,
            "title": "Joker",
            "release_date": "2012-08-31",
            "original_language": "hi",
            "original_title": "Joker",
            "genre_ids": [
                35,
                878
            ],
            "backdrop_path": "/7hsepp47nWm5cPgC1bEFJQK3Rk8.jpg",
            "adult": false,
            "overview": "In 1947 when the maps of India and Pakistan were being drawn, an oversight ensured that the village of Paglapur didn't find a place in either country. Over 60 years later, Paglapur is isolated, and in need of help. The residents seek help, but as a direct result of being left off the map, they find noone willing to accept Paglapur, and its problems, as their jurisdiction. The villagers decide they need to draw media attention to Paglapur, and in so doing, gain acceptance and help from those who had previously denied them.",
            "poster_path": "/ql1DUWjY6Y6zEbVFS83s20SBo8J.jpg"
        },
        {
            "popularity": 13.992,
            "vote_count": 322,
            "video": false,
            "poster_path": "/vIRHN4AXaQM6mMVj8CozhtelYmF.jpg",
            "id": 16234,
            "adult": false,
            "backdrop_path": "/pZCuxgUsDICPDKIFH8s5nQGeL4r.jpg",
            "original_language": "en",
            "original_title": "Batman Beyond: Return of the Joker",
            "genre_ids": [
                28,
                16,
                878,
                10751
            ],
            "title": "Batman Beyond: Return of the Joker",
            "vote_average": 7.6,
            "overview": "The Joker is back with a vengeance, and Gotham's newest Dark Knight needs answers as he stands alone to face Gotham's most infamous Clown Prince of Crime.",
            "release_date": "2000-12-12"
        },
        {
            "popularity": 3.077,
            "id": 146486,
            "video": false,
            "vote_count": 7,
            "vote_average": 4.4,
            "title": "Joker",
            "release_date": "1991-11-01",
            "original_language": "sv",
            "original_title": "Joker",
            "genre_ids": [
                35
            ],
            "backdrop_path": "/53WIxWs7RWUja4CzE3TJOQ2xjVv.jpg",
            "adult": false,
            "overview": "",
            "poster_path": "/rY8eu4yQTwpZgz8BEVKfGIh8TUG.jpg"
        },
        {
            "popularity": 3.903,
            "id": 214711,
            "video": false,
            "vote_count": 6,
            "vote_average": 5.9,
            "title": "Joker Rising",
            "release_date": "2013-09-21",
            "original_language": "en",
            "original_title": "Joker Rising",
            "genre_ids": [
                80
            ],
            "backdrop_path": "/ftVV8apC1o79GnFjxMmbKkL7qX3.jpg",
            "adult": false,
            "overview": "The dark and gritty story of where the Joker came from and how he became the villain that he is today.",
            "poster_path": "/61TRGy5wAKHFIfJ3eZpvlJ2TA8X.jpg"
        },
        {
            "popularity": 1.803,
            "id": 133792,
            "video": false,
            "vote_count": 8,
            "vote_average": 7.5,
            "title": "The Joker Is Wild",
            "release_date": "1957-09-26",
            "original_language": "en",
            "original_title": "The Joker Is Wild",
            "genre_ids": [
                18
            ],
            "backdrop_path": "/qrDGuzucmpKtNwp27xljTl0UymL.jpg",
            "adult": false,
            "overview": "Frank Sinatra stars in director Charles Vidor's 1957 film biography of nightclub entertainer Joe E. Lewis. The cast also includes Mitzi Gaynor, Jeanne Crain, Eddie Albert, Beverly Garland, Jackie Coogan, Harold Huber, Barry Kelley, Ted de Corsia, Ned Glass, Mary Treen and Sid Melton.",
            "poster_path": "/IzpqXlHFAHKDI5xpZ68OugMkyn.jpg"
        },
        {
            "popularity": 0.84,
            "id": 92152,
            "video": false,
            "vote_count": 5,
            "vote_average": 5.6,
            "title": "Lethal Obsession",
            "release_date": "1987-10-15",
            "original_language": "de",
            "original_title": "Der Joker",
            "genre_ids": [
                18,
                80,
                53
            ],
            "backdrop_path": null,
            "adult": false,
            "overview": "",
            "poster_path": "/lCh6AFRr0NN7bxt8E52Xvg01Hlz.jpg"
        },
        {
            "popularity": 0.6,
            "vote_count": 0,
            "video": false,
            "poster_path": "/sxvGzhK62cZ3KVDnJ7hDTcQvgMz.jpg",
            "id": 361365,
            "adult": false,
            "backdrop_path": null,
            "original_language": "en",
            "original_title": "Joker",
            "genre_ids": [],
            "title": "Joker",
            "vote_average": 0,
            "overview": "1983 short by Tessa Hughes-Freeland",
            "release_date": "1983-09-25"
        },
        {
            "popularity": 3.58,
            "id": 416572,
            "video": false,
            "vote_count": 10,
            "vote_average": 3.8,
            "title": "Joker's Poltergeist",
            "release_date": "2015-06-03",
            "original_language": "en",
            "original_title": "Joker's Poltergeist",
            "genre_ids": [
                27,
                53
            ],
            "backdrop_path": "/fihXbO1gnEcoeYNzSdV8864XLSS.jpg",
            "adult": false,
            "overview": "After a clown-masked assailant guns down Aurora's Place, the resident theater owner fights to re-open her business.",
            "poster_path": "/q27Irmlp9SansPgBv3u0D7TU6Sv.jpg"
        },
        {
            "popularity": 0.697,
            "id": 394520,
            "video": false,
            "vote_count": 1,
            "vote_average": 4,
            "title": "JOKER: Marginal City",
            "release_date": "1992-04-21",
            "original_language": "ja",
            "original_title": "JOKER \u30de\u30fc\u30b8\u30ca\u30eb\u30fb\u30b7\u30c6\u30a3",
            "genre_ids": [
                9648,
                16,
                878
            ],
            "backdrop_path": "/xLkGhJdPYypptPTy1H8A65b0AEM.jpg",
            "adult": false,
            "overview": "Joker is a cyborg who has superior strength, can absorb the DNA of any person by touch and regrow its body or part of it at will (hence Joker can be a male or a female). Joker belongs to a special troop of law enforcement: as cop, judge and executioner at the same time. Along with his/her lover, a police officer, they have dealt against criminals of every type.",
            "poster_path": "/68DKYcI7DdhYfw9C2rGgs6FdLFp.jpg"
        },
        {
            "popularity": 0.6,
            "id": 556726,
            "video": false,
            "vote_count": 0,
            "vote_average": 0,
            "title": "Le joker",
            "release_date": "1930-11-14",
            "original_language": "fr",
            "original_title": "Le joker",
            "genre_ids": [],
            "backdrop_path": null,
            "adult": false,
            "overview": "",
            "poster_path": null
        },
        {
            "popularity": 1.4,
            "id": 407788,
            "video": false,
            "vote_count": 1,
            "vote_average": 5,
            "title": "King, Queen and Joker",
            "release_date": "1921-05-15",
            "original_language": "en",
            "original_title": "King, Queen and Joker",
            "genre_ids": [],
            "backdrop_path": null,
            "adult": false,
            "overview": "King, Queen, Joker is a 1921 silent feature farce written and directed by Sydney Chaplin, Charlie's older brother. The picture was produced by Famous Players-Lasky and distributed through Paramount Pictures. The film was shot in England, France and the United States.\r Less than a reel of this film, the barbershop sequence, survives at the British Film Institute. It was included in the 2011 Criterion DVD special two disc edition release of The Great Dictator.",
            "poster_path": "/1ZDsR98CQDZefD9feRWNKKjkvLY.jpg"
        },
        {
            "popularity": 0.6,
            "id": 563477,
            "video": false,
            "vote_count": 0,
            "vote_average": 0,
            "title": "Ero the Joker",
            "release_date": "2018-11-06",
            "original_language": "en",
            "original_title": "Ero the Joker",
            "genre_ids": [],
            "backdrop_path": null,
            "adult": false,
            "overview": "To find a wife who truly loves him, a young trickster disguises himself as a pauper. But getting her parents' blessing will take every trick in the book.  Part of the Croatian National Theatre\u2019s repertoire since its premiere in 1935, Jakov Gotovac\u2019s comic opera is an ode to a rural way of life. It culminates in a frenzied tempo with a vigorous ballet \u2013 a celebration of Dalmatian music and dance.",
            "poster_path": "/xNVLGgvlyzeGAM7jeOMTQ4DXCvD.jpg"
        },
        {
            "popularity": 0.6,
            "id": 373797,
            "video": false,
            "vote_count": 0,
            "vote_average": 0,
            "title": "Mera Naam Joker",
            "release_date": "2000-08-16",
            "original_language": "ml",
            "original_title": "Mera Naam Joker",
            "genre_ids": [
                35
            ],
            "backdrop_path": "/iywXMAp14tvDyF7I4FPo4IEfqJP.jpg",
            "adult": false,
            "overview": "The story of four friends who decide to start a Auto Mechanic story.",
            "poster_path": "/gQdLU4CXoYsgBuYKO92DoGjlGjs.jpg"
        },
        {
            "popularity": 0.871,
            "id": 219521,
            "video": false,
            "vote_count": 1,
            "vote_average": 7,
            "title": "The Impractical Joker",
            "release_date": "1937-06-17",
            "original_language": "en",
            "original_title": "The Impractical Joker",
            "genre_ids": [],
            "backdrop_path": null,
            "adult": false,
            "overview": "Betty Boop's baking is interrupted by obnoxious practical joking friend Irving. Can Grampy out-joke the joker?",
            "poster_path": "/3ZbKRuX9TN7SX2uoiE7k612SHWH.jpg"
        },
        {
            "popularity": 0.6,
            "id": 301290,
            "video": false,
            "vote_count": 0,
            "vote_average": 0,
            "title": "An Ace and a Joker",
            "release_date": "1918-08-10",
            "original_language": "en",
            "original_title": "An Ace and a Joker",
            "genre_ids": [
                16
            ],
            "backdrop_path": null,
            "adult": false,
            "overview": "",
            "poster_path": "/uC9QiZBm5eQbiy5zG43kc9mjTCz.jpg"
        },
        {
            "popularity": 0.6,
            "id": 533864,
            "video": false,
            "vote_count": 0,
            "vote_average": 0,
            "title": "Untitled Jared Leto / Joker Film",
            "release_date": "",
            "original_language": "en",
            "original_title": "Untitled Jared Leto / Joker Film",
            "genre_ids": [
                80,
                28
            ],
            "backdrop_path": null,
            "adult": false,
            "overview": "Stand-alone project centering on The Joker from the 2016 film 'Suicide Squad'.",
            "poster_path": null
        },
        {
            "popularity": 8.952,
            "id": 472639,
            "video": false,
            "vote_count": 0,
            "vote_average": 0,
            "title": "Untitled Harley Quinn & The Joker Project",
            "release_date": "",
            "original_language": "en",
            "original_title": "Untitled Harley Quinn & The Joker Project",
            "genre_ids": [
                28,
                80,
                10749
            ],
            "backdrop_path": null,
            "adult": false,
            "overview": "A criminal love story. Plot unknown.",
            "poster_path": "/2tTkIOaMD8USVDUTlV5eMQLpWKg.jpg"
        },
        {
            "popularity": 0.6,
            "id": 312528,
            "video": false,
            "vote_count": 0,
            "vote_average": 0,
            "title": "Adicts: Joker in the Pack",
            "release_date": "2002-01-01",
            "original_language": "en",
            "original_title": "Adicts: Joker in the Pack",
            "genre_ids": [],
            "backdrop_path": null,
            "adult": false,
            "overview": "Capturing The Adicts in their element, this release contains two live concerts recorded at The Manhattan Club, and at a Blackpool punk all-dayer. The Blackpool concert was filmed in 1982 on a lone VHS video camera, and presents the band exactly how they're supposed to sound: live and raw. The Manhattan Club gig dates from 1983 and see's the band in their element bashing out prime punk fare like \"How Sad,\" \"Joker in the Pack,\" \"Steamroller\" and more.",
            "poster_path": null
        },
        {
            "popularity": 0.6,
            "id": 376924,
            "video": false,
            "vote_count": 0,
            "vote_average": 0,
            "title": "Jethro Live: 40 Years The Joker",
            "release_date": "2015-11-16",
            "original_language": "en",
            "original_title": "Jethro Live: 40 Years The Joker",
            "genre_ids": [
                35
            ],
            "backdrop_path": null,
            "adult": false,
            "overview": "Jethro Live 2015 \u2013 What Happened Was\u2026  The West Country\u2019s greatest ever spinner of madness and mirth JETHRO, is back and live for the first time in 4 years and for the last time ever.  Filmed on one special night in Summer 2015 at Yeovil\u2019s Octagon Theatre, What Happened Was\u2026 is a celebration of Jethro\u2019s forty years as one of the great joke-masters of all time.  Jethro Live, Bonus In response to endless requests, Jethro finally revisits some of the favourite gags and stories \u2013 as voted for by YOU the fans \u2013 that have made him one of the UK\u2019s best loved comedians, along with new gags, twists and added surprises along the way.",
            "poster_path": "/tIOLE9of2JW6PdWeXOeyilvCGIK.jpg"
        }
    ]
}